{
    "lastTemp": "2024-03-03T09:50:25.241Z",
    "not_snipeable": "{\"1433460\":\"kingman33\",\"1632161\":\"eman0028\",\"1974340\":\"mrvip09\",\"2137056\":\"yukihir0\",\"2228930\":\"borgy07\",\"2517466\":\"jm10mvp\",\"2938058\":\"goldenblade\",\"3614085\":\"goag\",\"3637104\":\"bili3d121\",\"3834098\":\"kingpiol\",\"5663342\":\"brunojose\",\"5830256\":\"frostfireCX\",\"6037076\":\"zekromlover777\",\"6085245\":\"SONIC3K5\",\"6750089\":\"ibel_land\",\"6767428\":\"easymopogi\",\"6865180\":\"Zek_weird\",\"7315079\":\"vioricL\",\"7572711\":\"nikename15\",\"8246867\":\"Thing_ling\",\"8291525\":\"ajm_619\",\"8369101\":\"JERRAKIZTAH\",\"8510429\":\"benes\",\"8607514\":\"jiedskie\",\"9050426\":\"linax33\",\"9099580\":\"shuddy\",\"9279377\":\"XxjhonxX123\",\"9339560\":\"kev38510\",\"9695701\":\"Radugalati\",\"9958776\":\"FortressMU\",\"10004670\":\"Leandro67\",\"10189521\":\"danielbulok0147\",\"10492066\":\"marlo122\",\"10495712\":\"Trzylraj\",\"10561379\":\"Winter1\",\"10710644\":\"KDVMASTER\",\"10756759\":\"heroname08\",\"10833178\":\"brmaldoso\",\"11186688\":\"princepe_12\",\"11256421\":\"hanish150\",\"11348972\":\"ennnnp\",\"11429921\":\"keithfc\",\"11436060\":\"Kevinoy\",\"11669589\":\"rosales123\",\"11776712\":\"rd_12345678\",\"11814595\":\"luciano\",\"11851529\":\"iceycles16\",\"12110257\":\"Jlhonoridez123\",\"12239021\":\"florendo2004\",\"12279844\":\"thekiller88NL\",\"12334799\":\"Pudding\",\"12384403\":\"xerxess07\",\"12495414\":\"Repula\",\"12515732\":\"TejaReddy25\",\"12558761\":\"maddaddy\",\"12600520\":\"ruthvik.r\",\"12908466\":\"bhekoyan\",\"12991597\":\"escat3\",\"13064143\":\"david153\",\"13100519\":\"nightcore02\",\"13113723\":\"Sin.X\",\"13226860\":\"BaconLoverXD231\",\"13532860\":\"Ian_Ereve00\",\"13571816\":\"warenace123\",\"13673017\":\"MegaMacho\",\"13811269\":\"Kstorage\",\"13879853\":\"joseph_pogi951\",\"13931334\":\"kashimiru\",\"14106839\":\"Mokshthegoodd\",\"14155763\":\"Alksen\",\"14273054\":\"Althea2015\",\"14282215\":\"The_ultimate_play~\",\"14287672\":\"equattions\",\"14303883\":\"Black_Ghost\",\"14319214\":\"acemar2\",\"14358777\":\"3vardhan\",\"14375877\":\"newbiginner2017\",\"14380484\":\"Serevilla\",\"14451602\":\"hanochmanuel\",\"14488609\":\"123PRIYANSH123\",\"14507346\":\"Iphone7.\",\"14595430\":\"Srizansairam\",\"14630736\":\"Holloween\",\"14650260\":\"willy123\",\"14808427\":\"Adeshwar\",\"14832905\":\"sannyj36\",\"14923674\":\"Arshiya1\",\"15001325\":\"zhE360\",\"15096024\":\"-kamaleshking-\",\"15097885\":\"Darkwar-kill\",\"15148120\":\"gauran\",\"15157990\":\"zanak\",\"15194103\":\"PETERMIKO05\",\"15208355\":\"-PietY-\",\"15231868\":\"divine_26\",\"15267986\":\"0022\",\"15271010\":\"Zygarde052585\",\"15298025\":\"bersbaba13224\",\"15333715\":\"Charmanderjaswanrh\",\"15369494\":\"123akoharry\",\"15405472\":\"Kaistorm1234\",\"15458792\":\"castro_12\",\"15519190\":\"hanzlodi\",\"15560708\":\"Orcbolg\",\"15612348\":\"jby_123\",\"15760810\":\"JoshkeSan\",\"15762824\":\"Kirandon\",\"15779990\":\"PritzckyPogi123\",\"15793052\":\"sanidhya08\",\"15841041\":\"rio_limpin\",\"15847321\":\"Pacd\",\"15869749\":\"Dragon-warriors_t~\",\"15870202\":\"achatterjee\",\"15896384\":\"aga123\",\"15898963\":\"RAZER\",\"15917960\":\"aykanacikgoz\",\"15927530\":\"trafalgarlaw143\",\"15944900\":\"Deadpool18\",\"15976163\":\"sanjiro456\",\"16005151\":\"Fitsaox\",\"16044570\":\"N2STATSO\",\"16083755\":\"Reficul666\",\"16101973\":\"25annemark\",\"16167011\":\"Erikku\",\"16180362\":\"Wukongtheking\",\"16204657\":\"9642757118\",\"16204815\":\"plamiano20\",\"16206865\":\"nzorange\",\"16207955\":\"NK_2\",\"16253872\":\"-YoungMoney-\",\"16265436\":\"Anger_legends_sto~\",\"16297177\":\"uloketsu\",\"16305748\":\"TheDeadlyKiller\",\"16338462\":\"ZeusColored\",\"16364765\":\"paarth121\",\"16376818\":\"johnemirson\",\"16401141\":\"Dinkera\",\"16408202\":\"Remlanie\",\"16408423\":\"-Kapritzo-\",\"16434801\":\"AshishRicky\",\"16447601\":\"2uperman\",\"16470387\":\"Jhaythen02\",\"16471946\":\"marvicpogi\",\"16491284\":\"Yinyang\",\"16494366\":\"kenlli.et25\",\"16494461\":\"nobunaga1\",\"16496111\":\"artzero123\",\"16503362\":\"fantasticbrothers\",\"16506933\":\"Marooo\",\"16525419\":\"haldir\",\"16528746\":\"CFNA.Snox\",\"16539504\":\"Kelly17\",\"16540157\":\"Kankka\",\"16542614\":\"w0ot\",\"16545372\":\"_warrior_\",\"16547968\":\"Ifosod\",\"16552172\":\"Rahulswagking\",\"16563301\":\"Namoka\",\"16565730\":\"designengr\",\"16577701\":\"darkraithelegend\",\"16583648\":\"trading_account\",\"16585217\":\"IHATEBALLOONS\",\"16586242\":\"Karthikeyaraju\",\"16586873\":\"Ishan99\",\"16600157\":\"KeanLee\",\"16600214\":\"Ganesh156\",\"16642079\":\"DemonicAngel\",\"16648029\":\"Martwilbur\",\"16650673\":\"Encore\",\"16674942\":\"shankar77964\",\"16675756\":\"Namish159-\",\"16682409\":\"vaishnav.\",\"16682998\":\"Adityathegamer202~\",\"16691669\":\"Housefullagain\",\"16719128\":\"DkStorm\",\"16721140\":\"Tatsumi_24\",\"16722436\":\"harshaxy\",\"16723573\":\"Zomb\",\"16730694\":\"Ashura.\",\"16735112\":\"padrecito04\",\"16736475\":\"dashingevil\",\"16745890\":\"Ash-skanda\",\"16761514\":\"The_deadly_player\",\"16764814\":\"Habadu\",\"16795713\":\"TCG_ZINDABAD\",\"16805422\":\"-Lonx\",\"16809562\":\"mtuan\",\"16819288\":\"Sathvik1520\",\"16827881\":\"Chinicoco\",\"16832135\":\"darkrai1128\",\"16833976\":\"BADASSOP\",\"16849077\":\"marazodnem\",\"16851060\":\"Helreginn\",\"16862854\":\"Harveygwapo15\",\"16863897\":\"Pizza_Hut\",\"16864225\":\"Rithvik0000\",\"16872874\":\"Uzunaruto1\",\"16881957\":\"wint.er\",\"16886553\":\"_ice_\",\"16892236\":\"Eeveelover00\",\"16898874\":\"prince12300\",\"16903307\":\"rpglegendhunter\",\"16909432\":\"prastar28\",\"16916213\":\"Happyy\",\"16918852\":\"VVTSTORAGE\",\"16923434\":\"Ranaranara\",\"16931340\":\"Bunnyboss_2005\",\"16934398\":\"Sadmalone\",\"16936287\":\"Neontreon\",\"16936572\":\"Dx_xD\",\"16946830\":\"Xans\",\"16948974\":\"aizenrose27\",\"16956205\":\"MaoRimuru\",\"16966675\":\"DarkStrike2986\",\"16969453\":\"29trxye\",\"16969534\":\"laklakbangi\",\"16973439\":\"Anguirus1956\",\"16985530\":\"Enma95\",\"16986123\":\"DaleDaily\",\"17008686\":\"_n1aj\",\"17008911\":\"smoker13\",\"17014140\":\"Jerjonath\",\"17028193\":\"Dex.Inc\",\"17029056\":\"Hello-everyone\",\"17030009\":\"b-1106\",\"17033113\":\"raj_singh_rajputt~\",\"17036209\":\"Akhil-_-\",\"17049263\":\"Ragnarok14\",\"17051548\":\"vijaykumar12345\",\"17072704\":\"CardinalDesire\",\"17079847\":\"Ksr001\",\"17084355\":\"Hororo17\",\"17094754\":\"-Lucian\",\"17103379\":\"Marreal12\",\"17110105\":\"Minatozaki29\",\"17125309\":\"dragonkingaarav_1~\",\"17127943\":\"Ben-10.\",\"17128291\":\"Jackma\",\"17128462\":\"hirai_momo45\",\"17128646\":\"Karthik789\",\"17155475\":\"Atharvkumar24\",\"17158593\":\"Slugattack\",\"17174924\":\"JOKEROP777-STORAGE\",\"17178641\":\"Emorej\",\"17187712\":\"Collapse\",\"17190754\":\"_The_Punisher_\",\"17198796\":\"JOKEROP777-COLLEC~\",\"17198939\":\"emsems30\",\"17224044\":\"-Vault\",\"17225712\":\"Pokemonhappy123\",\"17229060\":\"Tofu8B29\",\"17243187\":\"pauljohncruz1\",\"17260472\":\"clementine.\",\"17262177\":\"felipeh\",\"17272974\":\"12drago2k05\",\"17274761\":\"EduardoBr160\",\"17276660\":\"eyyjey\",\"17283038\":\"Adil6A47\",\"17293853\":\"7A32\",\"17302821\":\"Cookiemon\",\"17305237\":\"Rithwik.k\",\"17314662\":\"Naka-Dashi_Storage\",\"17320910\":\"Riolu90\",\"17329668\":\"Shanjie123\",\"17332012\":\"BoyMeetEv1\",\"17338892\":\"MEGA-MEWTWO-X\",\"17350671\":\"Disturbed\",\"17351187\":\"DhanAshG\",\"17353675\":\"1prince\",\"17358471\":\"jhiratina\",\"17366308\":\"finn.radcliffe\",\"17370527\":\"Jean28\",\"17370878\":\"Ncollector\",\"17381947\":\"Naoki\",\"17385119\":\"Xerofr\",\"17388155\":\"Roy444\",\"17388669\":\"Dj-3008k\",\"17388802\":\"Slarky_storage\",\"17389604\":\"Bobby143143\",\"17396548\":\"DK01\",\"17399043\":\"MaviiRat\",\"17399535\":\"Jopi\",\"17407065\":\"DoctorVirus\",\"17408558\":\"shiva1436\",\"17408677\":\"carry1812\",\"17429694\":\"MARINERS\",\"17441250\":\"oily\",\"17441799\":\"xionic\",\"17448760\":\"Rocky_12\",\"17449563\":\"Somu20046e73jbfbd\",\"17449992\":\"darcelo09\",\"17451915\":\"Shinyvp\",\"17453602\":\"HarithTheMage\",\"17453648\":\"GodKingKiel\",\"17458273\":\"Goutham999\",\"17458682\":\"Anjan57\",\"17464349\":\"Chaeyo.O\",\"17465476\":\"BoraBilll\",\"17473251\":\"Sayan65\",\"17473450\":\"NatZane8\",\"17475307\":\"cklrnm\",\"17483840\":\"Bimn_\",\"17496239\":\"GENGAR\",\"17497476\":\"GH0ST\",\"17498865\":\"helian27\",\"17503945\":\"HITESH7777\",\"17507408\":\"ojasthehypnosis\",\"17515851\":\"Wolf.\",\"17518110\":\"sakethnani_03\",\"17522751\":\"Vicsborn\",\"17529582\":\"Chandrakanth123456\",\"17531889\":\"Jorgedog\",\"17532413\":\"Zed31\",\"17534725\":\"-.Collection.-\",\"17538660\":\"AprilNate\",\"17545976\":\"Ginger_bread\",\"17549273\":\"VIVEK_KEVIV\",\"17553379\":\"Karrot13\",\"17561691\":\"Ryusei1995X\",\"17565326\":\"Princessa\",\"17571229\":\"Anish2010\",\"17572429\":\"Jet\",\"17583046\":\"Sanjay._.fr\",\"17587988\":\"Xxxtoxicxl\",\"17599745\":\"zzz\",\"17615131\":\"KRISH1818\",\"17617356\":\"COURSE\",\"17619444\":\"-GIRATINA-\",\"17620579\":\"Cafetariamoksi\",\"17630644\":\"Dmitri\",\"17631279\":\"Darkint\",\"17631918\":\"Slow_2loth\",\"17636856\":\"Havocano\",\"17636874\":\"harua\",\"17639308\":\"IKingJamesI\",\"17640305\":\"Skush\",\"17641113\":\"-Perfect\",\"17641142\":\"Sunny99123\",\"17645416\":\"Goku5\",\"17647369\":\"MikMik.\",\"17649272\":\"HKfrost\",\"17652246\":\"S-physical\",\"17654634\":\"Blue01\",\"17655554\":\"iosh_\",\"17656553\":\"Mawrisho_Blade\",\"17656574\":\"Kishku17\",\"17657752\":\"Dracula0201\",\"17659890\":\"toothless2127\",\"17664654\":\"Rvince160\",\"17665406\":\"King6969\",\"17671856\":\"Pokepal7\",\"17674584\":\"M3N4RD_B_OL1V4\",\"17676087\":\"Nibiru\",\"17679294\":\"Ghostring\",\"17680755\":\"Vegnagun\",\"17681336\":\"Samoru\",\"17682308\":\"2LATE4STOP_Collec~\",\"17682643\":\"Pinkdragon\",\"17682663\":\"G-Storage\",\"17684990\":\"DuoBoys\",\"17687113\":\"JackieChan\",\"17687563\":\"Roronoa--Zoro\",\"17690951\":\"Freaval\",\"17695943\":\"leeandrei\",\"17695974\":\"RR19\",\"17702581\":\"ExclusivePlays\",\"17703874\":\"Mochalatte\",\"17704214\":\"Asif_143\",\"17713183\":\"ChaseMESKY\",\"17718793\":\"Lorenzoruiz112105\",\"17726297\":\"comert93\",\"17730670\":\"darkr0wn\",\"17731398\":\"Pranav_69695\",\"17739595\":\"Zaraki\",\"17741086\":\"chika\",\"17741138\":\"bal171717\",\"17744079\":\"Babyhayley\",\"17744464\":\"Sallip09\",\"17746954\":\"Ash.1\",\"17747026\":\"licht_212\",\"17748256\":\"Rin09\",\"17751237\":\"extasy\",\"17751503\":\"Lisanna\",\"17751891\":\"Zephyra16_Bank\",\"17751944\":\"Xie...\",\"17755296\":\"arci06\",\"17755309\":\"itadoriyuji28\",\"17756399\":\"Mix-mix\",\"17757979\":\"Nxb_moon\",\"17759204\":\"densing16\",\"17759580\":\"Wilzon\",\"17759752\":\"satan3\",\"17763882\":\"Semistorage\",\"17765424\":\"x3zyzz\",\"17765917\":\"KingLeezy\",\"17775804\":\"seleneee\",\"17775830\":\"Tyron2002\",\"17775947\":\"momojjang1\",\"17777400\":\"dadan456\",\"17779983\":\"aman_bastawadi12\",\"17780231\":\"boomer29101\",\"17781094\":\"CStorage\",\"17782971\":\"Saiko_no_Shokan\",\"17784132\":\"EXPFARM-BANK\",\"17784383\":\"TxJ_106_storage\",\"17785874\":\"Madara_uchiha_777\",\"17794734\":\"Felicity.\"}",
    "snipeable": "{\"1384047\":\"gluegan\",\"1508722\":\"xxsigmaxx\",\"7274655\":\"kairi_22\",\"11690889\":\"greendragon8\",\"12711866\":\"Alexander.\",\"13869568\":\"daquanbryan132\",\"14031590\":\"0130kd\",\"15551274\":\"icybagaporo\",\"16337600\":\"Ibgreninja\",\"16499952\":\"Shinchan263\",\"16504971\":\"Sunny1706\",\"16537169\":\"pranith098\",\"16585992\":\"Sucesso\",\"16637947\":\"Ice-Ice\",\"17156345\":\"kutoka26\",\"17353588\":\"siddu.99_ff\",\"17359774\":\"Lanrebss1\",\"17400303\":\"Yorh\",\"17441613\":\"TrainerAuco\",\"17478235\":\"Uchiha_Sanji123\",\"17498610\":\"shashank15\",\"17498776\":\"Skwoneed\",\"17572332\":\"genetakovic\",\"17581535\":\"Dark_sky\",\"17595243\":\"nyelskie\",\"17627036\":\"zhiled\",\"17637711\":\"Demi\",\"17646235\":\"Crey31\",\"17649981\":\"Maku66\",\"17653198\":\"mewmew27\",\"17665932\":\"Prathik4204\",\"17667159\":\"Flame-dragon\",\"17683702\":\"Skyline_69\",\"17689007\":\"grimm04\",\"17692142\":\"HJW777\",\"17696633\":\"-Misaki-\",\"17759356\":\"king_piyush\",\"17762809\":\"pt_gamerz\",\"17765958\":\"EhviShing2.0\",\"17774329\":\"Teju-king\",\"17778707\":\"merryangelyn\",\"17790133\":\"Junior.edgardo.716\",\"17795564\":\"molhadinho\"}",
    "blacklist": "{\"17789550\":\"ZeoLegacy\",\"17167215\":\"Danyaisadonkey\",\"17637040\":\"Fantastic-lucifer\",\"17736213\":\"-ERINA-SAMA-\",\"17285567\":\"-LoneWolf-\",\"17495739\":\"Seiji101\",\"17687476\":\"Khaheer8\",\"17683459\":\"garachoi13\",\"17221523\":\"OG-GOD\",\"17783386\":\"S-fighter\",\"16406614\":\"flaredevil\",\"17574540\":\"starneybinson\",\"17784085\":\"James0127\",\"17770813\":\"Pranav28\"}"
}